{
  "project_info": {
    "project_number": "793479297825",
    "firebase_url": "https://easy-pay-7b46c.firebaseio.com",
    "project_id": "easy-pay-7b46c",
    "storage_bucket": "easy-pay-7b46c.appspot.com"
  },
  "client": [
    {
      "client_info": {
        "mobilesdk_app_id": "1:793479297825:android:bf931cf6c52a6dd8",
        "android_client_info": {
          "package_name": "x44.codefox.com.easypay"
        }
      },
      "oauth_client": [
        {
          "client_id": "793479297825-e8nins1sefjrjf1bre5aavk1roiqahir.apps.googleusercontent.com",
          "client_type": 1,
          "android_info": {
            "package_name": "x44.codefox.com.easypay",
            "certificate_hash": "249eb86028af33eb6b38fcc376dd444dc076fe2a"
          }
        },
        {
          "client_id": "793479297825-2l39mmavsdf9ca81nabo7pbt22kvv0q9.apps.googleusercontent.com",
          "client_type": 3
        }
      ],
      "api_key": [
        {
          "current_key": "AIzaSyB_58g3RY6j4-CCraiFWboa6Blkr5NBxLU"
        }
      ],
      "services": {
        "analytics_service": {
          "status": 1
        },
        "appinvite_service": {
          "status": 2,
          "other_platform_oauth_client": [
            {
              "client_id": "793479297825-2l39mmavsdf9ca81nabo7pbt22kvv0q9.apps.googleusercontent.com",
              "client_type": 3
            }
          ]
        },
        "ads_service": {
          "status": 2
        }
      }
    }
  ],
  "configuration_version": "1"
}